{
  "cratespawns": [
    [ -125.0, 0.0, 100.0 ],
    [ 125.0, 0.0, 100.0 ],
    [ -125.0, 0.0, -100.0 ],
    [ 125.0, 0.0, -100.0 ]
  ],

  "enemyspawns": [
    [ -40.0, 0.0, 120.0 ],
    [ 0.0, 0.0, 120.0 ],
    [ 40.0, 0.0, 120.0 ],

    [ -40.0, 0.0, -125.0 ],
    [ 0.0, 0.0, -125.0 ],
    [ 40.0, 0.0, -125.0 ],

    [ -145.0, 0.0, -5.0 ],

    [ 145.0, 0.0, -5.0 ]
  ],

  "fakewallspawns": [
    [ -135.0, 0.0, 40.0 ],
    [ -135.0, 0.0, 30.0 ],

    [ -135.0, 0.0, -40.0 ],
    [ -135.0, 0.0, -30.0 ],

    [ 135.0, 0.0, 40.0 ],
    [ 135.0, 0.0, 30.0 ],

    [ 135.0, 0.0, -40.0 ],
    [ 135.0, 0.0, -30.0 ]
  ],

  "barrelspawns": [
    [ -15.0, 0.0, 60.0 ],
    [ 15.0, 0.0, 60.0 ],

    [ -85.0, 0.0, 10.0 ],
    [ -85.0, 0.0, -20.0 ],

    [ 85.0, 0.0, 10.0 ],
    [ 85.0, 0.0, -20.0 ],

    [ -15.0, 0.0, -70.0 ],
    [ 15.0, 0.0, -70.0 ]
  ],

  "cloth": [
    {
      "position": [ -60.0, 20.0, 67.0 ],
      "size": [ 40.0, 10.0 ],
      "planeNormal": [ 0.0, 0.0, -1.0, 0.1 ],
      "force": [ -10.0, 0.0, 5.0 ]
    },
    {
      "position": [ 60.0, 20.0, 67.0 ],
      "size": [ 40.0, 10.0 ],
      "planeNormal": [ 0.0, 0.0, -1.0, 0.1 ],
      "force": [ -10.0, 0.0, 5.0 ]
    },
    {
      "position": [ -60.0, 20.0, -96.0 ],
      "size": [ 40.0, 10.0 ],
      "planeNormal": [ 0.0, 0.0, -1.0, 0.1 ],
      "force": [ -10.0, 0.0, 5.0 ]
    },
    {
      "position": [ 60.0, 20.0, -96.0 ],
      "size": [ 40.0, 10.0 ],
      "planeNormal": [ 0.0, 0.0, -1.0, 0.1 ],
      "force": [ -10.0, 0.0, 5.0 ]
    }
  ],

  "structures": {
    "structure1": {
      "filepath": "./Resources/Meshes/Structure/wall_pointy.ovm",
      "positions": [
        [ -140.0, 0.0, 115.0 ],
        [ -60.0, 0.0, 115.0 ],
        [ 60.0, 0.0, 115.0 ],
        [ 140.0, 0.0, 115.0 ],

        [ -100.0, 0.0, 75.0 ],
        [ -20.0, 0.0, 75.0 ],
        [ 20.0, 0.0, 75.0 ],
        [ 100.0, 0.0, 75.0 ],

        [ -140.0, 0.0, 55.0 ],
        [ 140.0, 0.0, 55.0 ],

        [ -100.0, 0.0, 15.0 ],
        [ 100.0, 0.0, 15.0 ],

        [ -100.0, 0.0, -27.5 ],
        [ 100.0, 0.0, -27.5 ],

        [ -140.0, 0.0, -65.0 ],
        [ 140.0, 0.0, -65.0 ],

        [ -100.0, 0.0, -87.5 ],
        [ -20.0, 0.0, -87.5 ],
        [ 100.0, 0.0, -87.5 ],
        [ 20.0, 0.0, -87.5 ],

        [ -140.0, 0.0, -125.0 ],
        [ -60.0, 0.0, -125.0 ],
        [ 60.0, 0.0, -125.0 ],
        [ 140.0, 0.0, -125.0 ]
      ]
    },
    "structure2": {
      "filepath": "./Resources/Meshes/Structure/6x2_wall.ovm",
      "positions": [
        [ -100.0, 0.0, 112.5 ],
        [ 100.0, 0.0, 112.5 ],

        [ -60.0, 0.0, 75.0 ],
        [ 60.0, 0.0, 75.0 ],

        [ -60.0, 0.0, -87.5 ],
        [ 60.0, 0.0, -87.5 ],

        [ -100.0, 0.0, -125.0 ],
        [ 100.0, 0.0, -125.0 ]
      ]
    },
    "structure3": {
      "filepath": "./Resources/Meshes/Structure/4x2_wall.ovm",
      "positions": [
        [ -140.0, 0.0, 85.0 ],
        [ 140.0, 0.0, 85.0 ],

        [ -100.0, 0.0, 45.0 ],
        [ 100.0, 0.0, 45.0 ],

        [ -100.0, 0.0, -57.5 ],
        [ 100.0, 0.0, -57.5 ],

        [ -140.0, 0.0, -95.0 ],
        [ 140.0, 0.0, -95.0 ]
      ]
    },
    "structure4": {
      "filepath": "./Resources/Meshes/Structure/2x2_wall.ovm",
      "positions": [
        [ -20.0, 0.0, 115.0 ],
        [ 20.0, 0.0, 115.0 ],

        [ -20.0, 0.0, -125.0 ],
        [ 20.0, 0.0, -125.0 ],

        [ -140.0, 0.0, 15.0 ],
        [ -140.0, 0.0, -15.0 ],

        [ 140.0, 0.0, 15.0 ],
        [ 140.0, 0.0, -15.0 ]
      ]
    },
    "structure5": {
      "filepath": "./Resources/Meshes/Structure/4x3_wall.ovm",
      "positions": [
        [ 0.0, 0.0, 0.0 ]
      ]
    }
  },

  "ground": {
    "filepath": "./Resources/Meshes/Structure/Ground_Gladiator.ovm",
    "position": [ 0.0, 0.0, 0.0 ],
    "playablearea": [ 280.0, 1.0, 230.0 ]
  },

  "playerstart": [ 0.0, 0.0, 35.0 ]
}